R for Data Science (2e) - 28 A field guide to base R
…
Then instead of iterating over the elements of paths, we’ll iterate over their indices, using seq_along() to generate one index for each element of paths:

seq_along(paths)
#>  [1]  1  2  3  4  5  6  7  8  9 10 11 12

Using the indices is important because it allows us to link to each position in the input with the corresponding position in the output:

for (i in seq_along(paths)) {
  files[[i]] <- readxl::read_excel(paths[[i]])
}

To combine the list of tibbles into a single tibble you can use do.call() + rbind():

do.call(rbind, files)
#> # A tibble: 1,704 × 5
#>   country     continent lifeExp      pop gdpPercap
#>   <chr>       <chr>       <dbl>    <dbl>     <dbl>
#> 1 Afghanistan Asia         28.8  8425333      779.
#> 2 Albania     Europe       55.2  1282697     1601.
#> 3 Algeria     Africa       43.1  9279525     2449.
#> 4 Angola      Africa       30.0  4232095     3521.
#> 5 Argentina   Americas     62.5 17876956     5911.
#> 6 Australia   Oceania      69.1  8691212    10040.
#> # ℹ 1,698 more rows
…
