R for Data Science (2e) - 6 Data tidying
…
可以用多种方式表示相同的基础数据。 下面的示例展示了相同的数据以三种不同的方式组织。 每个数据集都显示了四个变量的相同值：country、year、population 和结核病（TB）的记录 cases，但是每个数据集以不同的方式组织这些值。

table1
#> # A tibble: 6 × 4
#>   country      year  cases population
#>   <chr>       <dbl>  <dbl>      <dbl>
#> 1 Afghanistan  1999    745   19987071
#> 2 Afghanistan  2000   2666   20595360
#> 3 Brazil       1999  37737  172006362
#> 4 Brazil       2000  80488  174504898
#> 5 China        1999 212258 1272915272
#> 6 China        2000 213766 1280428583

table2
#> # A tibble: 12 × 4
#>   country      year type           count
#>   <chr>       <dbl> <chr>          <dbl>
#> 1 Afghanistan  1999 cases            745
#> 2 Afghanistan  1999 population  19987071
#> 3 Afghanistan  2000 cases           2666
#> 4 Afghanistan  2000 population  20595360
#> 5 Brazil       1999 cases          37737
#> 6 Brazil       1999 population 172006362
#> # ℹ 6 more rows
…
数据通常被组织成为实现除了分析之外的某个目标。 例如，常见的情况是为了简化数据输入而结构化数据，而不是为了方便分析。

大多数人不熟悉整洁数据（tidy data）的原则，除非您花费大量时间处理数据，否则很难自己推导出这些原则。

这意味着大多数实际分析都需要进行一些整理工作。 首先，您需要确定基础变量（variables）和观测（observations）是什么。 有时这很容易；其他时候，您可能需要与最初生成数据的人进行咨询。 接下来，您将 pivot 您的数据为整洁的形式，其中变量（variables）位于列（columns）中，观测（observations）位于行（rows）中。

tidyr 提供了两个用于数据透视（pivoting）的函数：pivot_longer() 和 pivot_wider()。 我们首先从 pivot_longer() 开始，因为它是最常见的情况。 让我们深入一些示例。

6.3.1 Data in column names

billboard 数据集记录了 2000 年歌曲的 billboard 排名：

billboard
#> # A tibble: 317 × 79
#>   artist       track               date.entered   wk1   wk2   wk3   wk4   wk5
#>   <chr>        <chr>               <date>       <dbl> <dbl> <dbl> <dbl> <dbl>
#> 1 2 Pac        Baby Don't Cry (Ke… 2000-02-26      87    82    72    77    87
#> 2 2Ge+her      The Hardest Part O… 2000-09-02      91    87    92    NA    NA
#> 3 3 Doors Down Kryptonite          2000-04-08      81    70    68    67    66
#> 4 3 Doors Down Loser               2000-10-21      76    76    72    69    67
#> 5 504 Boyz     Wobble Wobble       2000-04-15      57    34    25    17    17
#> 6 98^0         Give Me Just One N… 2000-08-19      51    39    34    26    26
#> # ℹ 311 more rows
#> # ℹ 71 more variables: wk6 <dbl>, wk7 <dbl>, wk8 <dbl>, wk9 <dbl>, …

在这个数据集中，每个观测（observation）都是一首歌曲。 前三列（artist, track and date.entered）是描述歌曲的变量（variables）。 然后我们有 76 列（wk1-wk76），描述了歌曲在每周的排名1。 这里，列名是一个变量（week），单元格的值是另一个变量（rank）。

为了整理这个数据，我们将使用 pivot_longer() 函数：

billboard |> 
  pivot_longer(
    cols = starts_with("wk"), 
    names_to = "week", 
    values_to = "rank"
  )
#> # A tibble: 24,092 × 5
#>    artist track                   date.entered week   rank
#>    <chr>  <chr>                   <date>       <chr> <dbl>
#>  1 2 Pac  Baby Don't Cry (Keep... 2000-02-26   wk1      87
#>  2 2 Pac  Baby Don't Cry (Keep... 2000-02-26   wk2      82
#>  3 2 Pac  Baby Don't Cry (Keep... 2000-02-26   wk3      72
#>  4 2 Pac  Baby Don't Cry (Keep... 2000-02-26   wk4      77
#>  5 2 Pac  Baby Don't Cry (Keep... 2000-02-26   wk5      87
#>  6 2 Pac  Baby Don't Cry (Keep... 2000-02-26   wk6      94
#>  7 2 Pac  Baby Don't Cry (Keep... 2000-02-26   wk7      99
#>  8 2 Pac  Baby Don't Cry (Keep... 2000-02-26   wk8      NA
#>  9 2 Pac  Baby Don't Cry (Keep... 2000-02-26   wk9      NA
#> 10 2 Pac  Baby Don't Cry (Keep... 2000-02-26   wk10     NA
#> # ℹ 24,082 more rows
…
values_to 命名存储在 cell values 中的变量，我们将该变量命名为 rank。

请注意，在代码中引用了 "week" 和 "rank" ，因为这些是我们正在创建的新变量，当我们运行 pivot_longer() 调用时，它们还不存在于数据中。

现在让我们将注意力转向结果，longer data frame。 如果一首歌进入前 100 名的时间少于 76 周，会发生什么情况？ 以 2 Pac 的 “Baby Don’t Cry” 为例。 上面的输出表明它只在前 100 名中停留了 7 周，其余所有周都用缺失值填充。 这些 NAs 并不真正代表未知的观察结果；它们是由 dataset2 的结构强制存在的，因此我们可以要求 pivot_longer() 通过设置 values_drop_na = TRUE 来删除它们：

billboard |> 
  pivot_longer(
    cols = starts_with("wk"), 
    names_to = "week", 
    values_to = "rank",
    values_drop_na = TRUE
  )
#> # A tibble: 5,307 × 5
#>   artist track                   date.entered week   rank
#>   <chr>  <chr>                   <date>       <chr> <dbl>
#> 1 2 Pac  Baby Don't Cry (Keep... 2000-02-26   wk1      87
#> 2 2 Pac  Baby Don't Cry (Keep... 2000-02-26   wk2      82
#> 3 2 Pac  Baby Don't Cry (Keep... 2000-02-26   wk3      72
#> 4 2 Pac  Baby Don't Cry (Keep... 2000-02-26   wk4      77
#> 5 2 Pac  Baby Don't Cry (Keep... 2000-02-26   wk5      87
#> 6 2 Pac  Baby Don't Cry (Keep... 2000-02-26   wk6      94
#> # ℹ 5,301 more rows
…
这些数据现在很整洁，但我们可以通过使用 mutate() 和 readr::parse_number() 将 week 值从字符串（character strings）转换为数字（numbers），从而使将来的计算变得更容易。 parse_number() 是一个方便的函数，它将从字符串中提取第一个数字，忽略所有其他文本。

billboard_longer <- billboard |> 
  pivot_longer(
    cols = starts_with("wk"), 
    names_to = "week", 
    values_to = "rank",
    values_drop_na = TRUE
  ) |> 
  mutate(
    week = parse_number(week)
  )
billboard_longer
#> # A tibble: 5,307 × 5
#>   artist track                   date.entered  week  rank
#>   <chr>  <chr>                   <date>       <dbl> <dbl>
#> 1 2 Pac  Baby Don't Cry (Keep... 2000-02-26       1    87
#> 2 2 Pac  Baby Don't Cry (Keep... 2000-02-26       2    82
#> 3 2 Pac  Baby Don't Cry (Keep... 2000-02-26       3    72
#> 4 2 Pac  Baby Don't Cry (Keep... 2000-02-26       4    77
#> 5 2 Pac  Baby Don't Cry (Keep... 2000-02-26       5    87
#> 6 2 Pac  Baby Don't Cry (Keep... 2000-02-26       6    94
#> # ℹ 5,301 more rows
…
Figure 6.5: 值的数值被保留（不重复），但逐行展开。

6.3.3 Many variables in column names

当您将多条信息塞入 column names 中，并且您希望将这些信息存储在单独的新变量中时，就会出现更具挑战性的情况。 例如，采用 who2 数据集，这是跟你之前看到的 table1 是相同来源的数据：

who2
#> # A tibble: 7,240 × 58
#>   country      year sp_m_014 sp_m_1524 sp_m_2534 sp_m_3544 sp_m_4554
#>   <chr>       <dbl>    <dbl>     <dbl>     <dbl>     <dbl>     <dbl>
#> 1 Afghanistan  1980       NA        NA        NA        NA        NA
#> 2 Afghanistan  1981       NA        NA        NA        NA        NA
#> 3 Afghanistan  1982       NA        NA        NA        NA        NA
#> 4 Afghanistan  1983       NA        NA        NA        NA        NA
#> 5 Afghanistan  1984       NA        NA        NA        NA        NA
#> 6 Afghanistan  1985       NA        NA        NA        NA        NA
#> # ℹ 7,234 more rows
#> # ℹ 51 more variables: sp_m_5564 <dbl>, sp_m_65 <dbl>, sp_f_014 <dbl>, …

该数据集由世界卫生组织收集，记录有关结核病诊断（tuberculosis diagnoses）的信息。 有两列已经是变量（variables）且易于解释：country 和 year。 接下来是 56 列，例如 sp_m_014、ep_m_4554、rel_m_3544。 如果你盯着这些列足够长的时间，你会发现其中存在一种模式。 每个列名称由三部分组成，并用 _ 分隔。 第一部分 sp/rel/ep 描述了用于诊断的方法（diagnosis），第二部分 m/f 是性别（gender）（在此数据集中编码为二进制变量），第三部分 014/1524/2534/3544/4554/5564/65 是年龄范围（age）（例如，014 代表 0-14）。

因此，在本例中，who2 中记录了六条信息：country 和 year（已经是列）；诊断方法（diagnosis）、性别类别（gender）和年龄范围类别（age）（包含在其他列名称中）；以及该类别中的患者数量（count）（单元格值）。 为了将这六条信息组织在六个单独的列中，我们使用 pivot_longer() 以及 names_to 的列名称向量将原始变量名称拆分为 names_sep 片段以及 values_to 的列名称：

who2 |> 
  pivot_longer(
    cols = !(country:year),
    names_to = c("diagnosis", "gender", "age"), 
    names_sep = "_",
    values_to = "count"
  )
#> # A tibble: 405,440 × 6
#>   country      year diagnosis gender age   count
#>   <chr>       <dbl> <chr>     <chr>  <chr> <dbl>
#> 1 Afghanistan  1980 sp        m      014      NA
#> 2 Afghanistan  1980 sp        m      1524     NA
#> 3 Afghanistan  1980 sp        m      2534     NA
#> 4 Afghanistan  1980 sp        m      3544     NA
#> 5 Afghanistan  1980 sp        m      4554     NA
#> 6 Afghanistan  1980 sp        m      5564     NA
#> # ℹ 405,434 more rows
…
该数据集包含有关五个家庭的数据，其中最多包含两个孩子的姓名和出生日期。 此数据集中的新挑战是列名称包含两个变量的名称（dob、name）和另一个变量的值（child，值为 1 或 2）。 为了解决这个问题，我们再次需要向 names_to 提供一个向量，但这次我们使用特殊的 “.value” 语句；这不是变量的名称，而是告诉 pivot_longer() 执行不同操作的唯一值。 这会覆盖通常的 values_to 参数，以使用 pivoted column name 的第一个组成部分作为输出中的变量名称。

household |> 
  pivot_longer(
    cols = !family, 
    names_to = c(".value", "child"), 
    names_sep = "_", 
    values_drop_na = TRUE
  )
#> # A tibble: 9 × 4
#>   family child  dob        name 
#>    <int> <chr>  <date>     <chr>
#> 1      1 child1 1998-11-26 Susan
#> 2      1 child2 2000-01-29 Jose 
#> 3      2 child1 1996-06-22 Mark 
#> 4      3 child1 2002-07-11 Sam  
#> 5      3 child2 2004-04-05 Seth 
#> 6      4 child1 2004-10-10 Craig
#> # ℹ 3 more rows
…
Figure 6.7: 使用 names_to = c(".value", "num") 进行 Pivoting 将列名称分为两个部分：第一部分确定输出列名称（x or y），第二部分确定 num 列的值。

6.4 Widening data

到目前为止，我们已经使用 pivot_longer() 来解决值以列名结束的常见问题。 接下来，我们将转向 pivot_wider()，它通过增加列和减少行来使数据集更宽（wider），并且当一个观测（observation）分布在多行上时会有所帮助。 这种情况在野外似乎不太常见，但在处理政府数据时似乎确实经常出现。

我们首先查看 cms_patient_experience，这是来自 Medicare 和 Medicaid 服务中心的数据集，用于收集有关患者体验的数据：

cms_patient_experience
#> # A tibble: 500 × 5
#>   org_pac_id org_nm                     measure_cd   measure_title   prf_rate
#>   <chr>      <chr>                      <chr>        <chr>              <dbl>
#> 1 0446157747 USC CARE MEDICAL GROUP INC CAHPS_GRP_1  CAHPS for MIPS…       63
#> 2 0446157747 USC CARE MEDICAL GROUP INC CAHPS_GRP_2  CAHPS for MIPS…       87
#> 3 0446157747 USC CARE MEDICAL GROUP INC CAHPS_GRP_3  CAHPS for MIPS…       86
#> 4 0446157747 USC CARE MEDICAL GROUP INC CAHPS_GRP_5  CAHPS for MIPS…       57
#> 5 0446157747 USC CARE MEDICAL GROUP INC CAHPS_GRP_8  CAHPS for MIPS…       85
#> 6 0446157747 USC CARE MEDICAL GROUP INC CAHPS_GRP_12 CAHPS for MIPS…       24
#> # ℹ 494 more rows
…
这些列都不会成为特别好的变量名称：measure_cd 不会暗示变量的含义，而 measure_title 是一个包含空格的长句子。 我们现在将使用 measure_cd 作为新列名称的来源，但在实际分析中，您可能希望创建自己的既短又有意义的变量名称。

pivot_wider() 与 pivot_longer() 具有相反的接口：我们不需要选择新的列名，而是需要提供定义值 (values_from) 和列名 (names_from) 的现有列：

cms_patient_experience |> 
  pivot_wider(
    names_from = measure_cd,
    values_from = prf_rate
  )
#> # A tibble: 500 × 9
#>   org_pac_id org_nm                   measure_title   CAHPS_GRP_1 CAHPS_GRP_2
#>   <chr>      <chr>                    <chr>                 <dbl>       <dbl>
#> 1 0446157747 USC CARE MEDICAL GROUP … CAHPS for MIPS…          63          NA
#> 2 0446157747 USC CARE MEDICAL GROUP … CAHPS for MIPS…          NA          87
#> 3 0446157747 USC CARE MEDICAL GROUP … CAHPS for MIPS…          NA          NA
#> 4 0446157747 USC CARE MEDICAL GROUP … CAHPS for MIPS…          NA          NA
#> 5 0446157747 USC CARE MEDICAL GROUP … CAHPS for MIPS…          NA          NA
#> 6 0446157747 USC CARE MEDICAL GROUP … CAHPS for MIPS…          NA          NA
#> # ℹ 494 more rows
#> # ℹ 4 more variables: CAHPS_GRP_3 <dbl>, CAHPS_GRP_5 <dbl>, …

输出看起来不太正确；我们似乎仍然为每个组织有多行。 这是因为，我们还需要告诉 pivot_wider() 哪一列或多列具有唯一标识每一行的值；在本例中，这些是以 "org" 开头的变量：

cms_patient_experience |> 
  pivot_wider(
    id_cols = starts_with("org"),
    names_from = measure_cd,
    values_from = prf_rate
  )
#> # A tibble: 95 × 8
#>   org_pac_id org_nm           CAHPS_GRP_1 CAHPS_GRP_2 CAHPS_GRP_3 CAHPS_GRP_5
#>   <chr>      <chr>                  <dbl>       <dbl>       <dbl>       <dbl>
#> 1 0446157747 USC CARE MEDICA…          63          87          86          57
#> 2 0446162697 ASSOCIATION OF …          59          85          83          63
#> 3 0547164295 BEAVER MEDICAL …          49          NA          75          44
#> 4 0749333730 CAPE PHYSICIANS…          67          84          85          65
#> 5 0840104360 ALLIANCE PHYSIC…          66          87          87          64
#> 6 0840109864 REX HOSPITAL INC          73          87          84          67
#> # ℹ 89 more rows
#> # ℹ 2 more variables: CAHPS_GRP_8 <dbl>, CAHPS_GRP_12 <dbl>
…
