R for Data Science (2e) - 2 Data visualization
…
为了方便讨论，让我们定义一些术语： - A variable 是可以进行测量的数量、特性或属性。

A value 是在测量时 variable 所处的状态。 variable 的 value 可能会在每次测量时发生变化。

An observation 是在类似条件下进行的一组测量（通常在同一时间和同一对象上进行所有测量）。 一个 observation 会包含多个 values，每个 value 与不同的 variable 相关联。 我们有时将一个 observation 称为一个数据点。

Tabular data 是一组 values，每个 value 与一个 variable 和一个 observation 相关联。 如果每个 value 都放置在自己的”单元格”中，每个 variable 都在自己的列中，每个 observation 都在自己的行中，那么 Tabular data 就是整洁（tidy）的。

在这个案例中，variable 指的是所有企鹅的属性，observation 指的是单个企鹅的所有属性。

在控制台中键入 data frame 的名称，R 将打印出其内容的预览。 请注意，预览的顶部显示着 tibble。 在 tidyverse 中，我们使用特殊的 data frames 称为 tibbles，您很快将学到更多关于它的知识。

penguins
#> # A tibble: 344 × 8
#>   species island    bill_length_mm bill_depth_mm flipper_length_mm
#>   <fct>   <fct>              <dbl>         <dbl>             <int>
#> 1 Adelie  Torgersen           39.1          18.7               181
#> 2 Adelie  Torgersen           39.5          17.4               186
#> 3 Adelie  Torgersen           40.3          18                 195
#> 4 Adelie  Torgersen           NA            NA                  NA
#> 5 Adelie  Torgersen           36.7          19.3               193
#> 6 Adelie  Torgersen           39.3          20.6               190
#> # ℹ 338 more rows
#> # ℹ 3 more variables: body_mass_g <int>, sex <fct>, year <int>
…
