R for Data Science (2e) - 8 Data import
…
8.4 Reading data from multiple files

有时，您的数据会分割在多个文件中，而不是包含在单个文件中。 例如，您可能有多个月的销售数据，每个月的数据都位于单独的文件中：01-sales.csv for January, 02-sales.csv for February, and 03-sales.csv for March。 使用 read_csv()，您可以立即读取这些数据并将它们堆叠在单个数据框中。

sales_files <- c("data/01-sales.csv", "data/02-sales.csv", "data/03-sales.csv")
read_csv(sales_files, id = "file")
#> # A tibble: 19 × 6
#>   file              month    year brand  item     n
#>   <chr>             <chr>   <dbl> <dbl> <dbl> <dbl>
#> 1 data/01-sales.csv January  2019     1  1234     3
#> 2 data/01-sales.csv January  2019     1  8721     9
#> 3 data/01-sales.csv January  2019     1  1822     2
#> 4 data/01-sales.csv January  2019     2  3333     1
#> 5 data/01-sales.csv January  2019     2  2156     9
#> 6 data/01-sales.csv January  2019     2  3987     6
#> # ℹ 13 more rows
…
