R for Data Science (2e) - 22 Databases
…
If you’re using duckdb in a real project, we highly recommend learning about duckdb_read_csv() and duckdb_register_arrow(). These give you powerful and performant ways to quickly load data directly into duckdb, without having to first load it into R. We’ll also show off a useful technique for loading multiple files into a database in sec-save-database.

22.3.3 DBI basics

You can check that the data is loaded correctly by using a couple of other DBI functions: dbListTable() lists all tables in the database3 and dbReadTable() retrieves the contents of a table.

dbListTables(con)
#> [1] "diamonds" "mpg"

con |> 
  dbReadTable("diamonds") |> 
  as_tibble()
#> # A tibble: 53,940 × 10
#>   carat cut       color clarity depth table price     x     y     z
#>   <dbl> <fct>     <fct> <fct>   <dbl> <dbl> <int> <dbl> <dbl> <dbl>
#> 1  0.23 Ideal     E     SI2      61.5    55   326  3.95  3.98  2.43
#> 2  0.21 Premium   E     SI1      59.8    61   326  3.89  3.84  2.31
#> 3  0.23 Good      E     VS1      56.9    65   327  4.05  4.07  2.31
#> 4  0.29 Premium   I     VS2      62.4    58   334  4.2   4.23  2.63
#> 5  0.31 Good      J     SI2      63.3    58   335  4.34  4.35  2.75
#> 6  0.24 Very Good J     VVS2     62.8    57   336  3.94  3.96  2.48
#> # ℹ 53,934 more rows

dbReadTable() returns a data.frame so we use as_tibble() to convert it into a tibble so that it prints nicely.

If you already know SQL, you can use dbGetQuery() to get the results of running a query on the database:

sql <- "
  SELECT carat, cut, clarity, color, price 
  FROM diamonds 
  WHERE price > 15000
"
as_tibble(dbGetQuery(con, sql))
#> # A tibble: 1,655 × 5
#>   carat cut       clarity color price
#>   <dbl> <fct>     <fct>   <fct> <int>
#> 1  1.54 Premium   VS2     E     15002
#> 2  1.19 Ideal     VVS1    F     15005
#> 3  2.1  Premium   SI1     I     15007
#> 4  1.69 Ideal     SI1     D     15011
#> 5  1.5  Very Good VVS2    G     15013
#> 6  1.73 Very Good VS1     G     15014
#> # ℹ 1,649 more rows
…
You can see the SQL code generated by the dplyr function show_query(). If you know dplyr, this is a great way to learn SQL! Write some dplyr code, get dbplyr to translate it to SQL, and then try to figure out how the two languages match up.

big_diamonds_db |>
  show_query()
#> <SQL>
#> SELECT carat, cut, color, clarity, price
#> FROM diamonds
#> WHERE (price > 15000.0)

To get all the data back into R, you call collect(). Behind the scenes, this generates the SQL, calls dbGetQuery() to get the data, then turns the result into a tibble:

big_diamonds <- big_diamonds_db |> 
  collect()
big_diamonds
#> # A tibble: 1,655 × 5
#>   carat cut       color clarity price
#>   <dbl> <fct>     <fct> <fct>   <int>
#> 1  1.54 Premium   E     VS2     15002
#> 2  1.19 Ideal     F     VVS1    15005
#> 3  2.1  Premium   I     SI1     15007
#> 4  1.69 Ideal     D     SI1     15011
#> 5  1.5  Very Good G     VVS2    15013
#> 6  1.73 Very Good G     VS1     15014
#> # ℹ 1,649 more rows
…
