R for Data Science (2e) - 4 Data transformation
…
请仔细注意加载 tidyverse 时打印的冲突消息（conflicts message）。 它告诉你 dplyr 覆盖了 base R 中的一些函数。 如果你想在加载 dplyr 后使用这些函数的 base 版本，你需要使用它们的全名：stats::filter() 和 stats::lag()。 到目前为止，我们大多忽略了一个函数来自哪个包，因为大多数时候它并不重要。 但是，了解包可以帮助您找到帮助并找到相关函数，因此当我们需要准确了解某个函数来自哪个包时，我们将使用与 R 相同的语法：packagename::functionname()。

4.1.2 nycflights13

为了探索基本的 dplyr verbs，我们将使用 nycflights13::flights。 该数据集包含 2013 年从纽约市起飞的所有 336,776 航班。 数据来自美国 Bureau of Transportation Statistics，记录在 ?flights 中。

flights
#> # A tibble: 336,776 × 19
#>    year month   day dep_time sched_dep_time dep_delay arr_time sched_arr_time
#>   <int> <int> <int>    <int>          <int>     <dbl>    <int>          <int>
#> 1  2013     1     1      517            515         2      830            819
#> 2  2013     1     1      533            529         4      850            830
#> 3  2013     1     1      542            540         2      923            850
#> 4  2013     1     1      544            545        -1     1004           1022
#> 5  2013     1     1      554            600        -6      812            837
#> 6  2013     1     1      554            558        -4      740            728
#> # ℹ 336,770 more rows
#> # ℹ 11 more variables: arr_delay <dbl>, carrier <chr>, flight <int>, …
…
dplyr 的 verbs 根据操作对象分为四组：rows, columns, groups, or tables。 在接下来的部分中，您将学习 rows、columns 和 groups 最重要的 verbs，然后我们将回到 Chapter 20 中用于 tables 的连接动词。 让我们开始吧！

4.2 Rows

对数据集的行进行操作的最重要的 verbs 是 filter()，它改变了哪些行存在而不改变它们的顺序，以及 arrange()，它改变了行的顺序而不改变存在的行。 这两个函数只影响行，列保持不变。 我们还将讨论 distinct()，它可以找到具有唯一值的行，但与 arrange() 和 filter() 不同的是，它还可以选择性地修改列。

4.2.1 filter()

filter() 允许您根据列的值保留行1。 第一个参数是 data frame。 第二个和后续参数是必须为真才能保留该行的条件。 例如，我们可以找到所有晚点超过 120 分钟（两小时）的航班：

flights |> 
  filter(dep_delay > 120)
#> # A tibble: 9,723 × 19
#>    year month   day dep_time sched_dep_time dep_delay arr_time sched_arr_time
#>   <int> <int> <int>    <int>          <int>     <dbl>    <int>          <int>
#> 1  2013     1     1      848           1835       853     1001           1950
#> 2  2013     1     1      957            733       144     1056            853
#> 3  2013     1     1     1114            900       134     1447           1222
#> 4  2013     1     1     1540           1338       122     2020           1825
#> 5  2013     1     1     1815           1325       290     2120           1542
#> 6  2013     1     1     1842           1422       260     1958           1535
#> # ℹ 9,717 more rows
#> # ℹ 11 more variables: arr_delay <dbl>, carrier <chr>, flight <int>, …

除了 >（大于），您还可以使用 >=（大于或等于）、<（小于）、<=（小于或等于）、== （等于）和 !=（不等于）。 您还可以将条件与 & 或 , 结合起来以指示 “and”（检查两个条件）或与 | 结合以指示 “or”（检查任一条件）：

# Flights that departed on January 1
flights |> 
  filter(month == 1 & day == 1)
#> # A tibble: 842 × 19
#>    year month   day dep_time sched_dep_time dep_delay arr_time sched_arr_time
#>   <int> <int> <int>    <int>          <int>     <dbl>    <int>          <int>
#> 1  2013     1     1      517            515         2      830            819
#> 2  2013     1     1      533            529         4      850            830
#> 3  2013     1     1      542            540         2      923            850
#> 4  2013     1     1      544            545        -1     1004           1022
#> 5  2013     1     1      554            600        -6      812            837
#> 6  2013     1     1      554            558        -4      740            728
#> # ℹ 836 more rows
#> # ℹ 11 more variables: arr_delay <dbl>, carrier <chr>, flight <int>, …

# Flights that departed in January or February
flights |> 
  filter(month == 1 | month == 2)
#> # A tibble: 51,955 × 19
#>    year month   day dep_time sched_dep_time dep_delay arr_time sched_arr_time
#>   <int> <int> <int>    <int>          <int>     <dbl>    <int>          <int>
#> 1  2013     1     1      517            515         2      830            819
#> 2  2013     1     1      533            529         4      850            830
#> 3  2013     1     1      542            540         2      923            850
#> 4  2013     1     1      544            545        -1     1004           1022
#> 5  2013     1     1      554            600        -6      812            837
#> 6  2013     1     1      554            558        -4      740            728
#> # ℹ 51,949 more rows
#> # ℹ 11 more variables: arr_delay <dbl>, carrier <chr>, flight <int>, …

组合 | 和 == 时有一个有用的快捷方式：%in%。 它保留变量等于右侧值之一的行：

# A shorter way to select flights that departed in January or February
flights |> 
  filter(month %in% c(1, 2))
#> # A tibble: 51,955 × 19
#>    year month   day dep_time sched_dep_time dep_delay arr_time sched_arr_time
#>   <int> <int> <int>    <int>          <int>     <dbl>    <int>          <int>
#> 1  2013     1     1      517            515         2      830            819
#> 2  2013     1     1      533            529         4      850            830
#> 3  2013     1     1      542            540         2      923            850
#> 4  2013     1     1      544            545        -1     1004           1022
#> 5  2013     1     1      554            600        -6      812            837
#> 6  2013     1     1      554            558        -4      740            728
#> # ℹ 51,949 more rows
#> # ℹ 11 more variables: arr_delay <dbl>, carrier <chr>, flight <int>, …
…
另一个错误是你像用英语那样写 “or” 语句：

flights |> 
  filter(month == 1 | 2)

这个能够工作，因为它不会抛出错误，但它不会得到你想要的结果，因为 | 首先检查条件 month == 1 然后检查条件 2，这不是一个明智的检查条件。 我们将在 Section 16.6.2 中详细了解这里发生的事情以及原因。

4.2.3 arrange()

arrange() 根据列（columns）的值更改行（rows）的顺序。 它接受一个 data frame 和一组要按顺序排列的列名（column names）（或更复杂的表达式）。 如果提供多个列名（column names），每个额外的列将用于解决前面列的值相等的情况。 例如，下面的代码按照出发时间排序，该时间跨越了四列。 我们首先获取最早的年份（years），然后在一年内获取最早的月份（months），以此类推。

flights |> 
  arrange(year, month, day, dep_time)
#> # A tibble: 336,776 × 19
#>    year month   day dep_time sched_dep_time dep_delay arr_time sched_arr_time
#>   <int> <int> <int>    <int>          <int>     <dbl>    <int>          <int>
#> 1  2013     1     1      517            515         2      830            819
#> 2  2013     1     1      533            529         4      850            830
#> 3  2013     1     1      542            540         2      923            850
#> 4  2013     1     1      544            545        -1     1004           1022
#> 5  2013     1     1      554            600        -6      812            837
#> 6  2013     1     1      554            558        -4      740            728
#> # ℹ 336,770 more rows
#> # ℹ 11 more variables: arr_delay <dbl>, carrier <chr>, flight <int>, …

在 arrange() 内部，您可以对列使用 desc() 函数，以便按降序（从大到小）重新排序数据框。 例如，以下代码按延误时间从最长到最短的顺序排序航班：

flights |> 
  arrange(desc(dep_delay))
#> # A tibble: 336,776 × 19
#>    year month   day dep_time sched_dep_time dep_delay arr_time sched_arr_time
#>   <int> <int> <int>    <int>          <int>     <dbl>    <int>          <int>
#> 1  2013     1     9      641            900      1301     1242           1530
#> 2  2013     6    15     1432           1935      1137     1607           2120
#> 3  2013     1    10     1121           1635      1126     1239           1810
#> 4  2013     9    20     1139           1845      1014     1457           2210
#> 5  2013     7    22      845           1600      1005     1044           1815
#> 6  2013     4    10     1100           1900       960     1342           2211
#> # ℹ 336,770 more rows
#> # ℹ 11 more variables: arr_delay <dbl>, carrier <chr>, flight <int>, …

请注意，行的数量没有改变 – 我们只是重新排列了数据，而没有对其进行筛选。

4.2.4 distinct()

distinct() 函数用于在数据集中查找所有唯一的行，因此从技术上讲，它主要操作行。 然而，大多数情况下，您希望获取某些变量的唯一组合，因此您也可以选择性地提供列名：

# Remove duplicate rows, if any
flights |> 
  distinct()
#> # A tibble: 336,776 × 19
#>    year month   day dep_time sched_dep_time dep_delay arr_time sched_arr_time
#>   <int> <int> <int>    <int>          <int>     <dbl>    <int>          <int>
#> 1  2013     1     1      517            515         2      830            819
#> 2  2013     1     1      533            529         4      850            830
#> 3  2013     1     1      542            540         2      923            850
#> 4  2013     1     1      544            545        -1     1004           1022
#> 5  2013     1     1      554            600        -6      812            837
#> 6  2013     1     1      554            558        -4      740            728
#> # ℹ 336,770 more rows
#> # ℹ 11 more variables: arr_delay <dbl>, carrier <chr>, flight <int>, …

# Find all unique origin and destination pairs
flights |> 
  distinct(origin, dest)
#> # A tibble: 224 × 2
#>   origin dest 
#>   <chr>  <chr>
#> 1 EWR    IAH  
#> 2 LGA    IAH  
#> 3 JFK    MIA  
#> 4 JFK    BQN  
#> 5 LGA    ATL  
#> 6 EWR    ORD  
#> # ℹ 218 more rows

另外，如果您在筛选唯一行时想要保留其他列，可以使用 .keep_all = TRUE 选项。

flights |> 
  distinct(origin, dest, .keep_all = TRUE)
#> # A tibble: 224 × 19
#>    year month   day dep_time sched_dep_time dep_delay arr_time sched_arr_time
#>   <int> <int> <int>    <int>          <int>     <dbl>    <int>          <int>
#> 1  2013     1     1      517            515         2      830            819
#> 2  2013     1     1      533            529         4      850            830
#> 3  2013     1     1      542            540         2      923            850
#> 4  2013     1     1      544            545        -1     1004           1022
#> 5  2013     1     1      554            600        -6      812            837
#> 6  2013     1     1      554            558        -4      740            728
#> # ℹ 218 more rows
#> # ℹ 11 more variables: arr_delay <dbl>, carrier <chr>, flight <int>, …

并非巧合，所有这些唯一的航班都是在 1 月 1 日：distinct() 函数将找到数据集中唯一行的第一个出现，并丢弃其余的重复行。

如果您想找到每个唯一行的出现次数，最好将 distinct() 替换为 count() 函数，并使用 sort = TRUE 参数按出现次数的降序排列它们。 您可以在 Section 14.3 中了解更多关于 count() 函数的内容。

flights |>
  count(origin, dest, sort = TRUE)
#> # A tibble: 224 × 3
#>   origin dest      n
#>   <chr>  <chr> <int>
#> 1 JFK    LAX   11262
#> 2 LGA    ATL   10263
#> 3 LGA    ORD    8857
#> 4 JFK    SFO    8204
#> 5 LGA    CLT    6168
#> 6 EWR    ORD    6100
#> # ℹ 218 more rows
…
4.3 Columns

有四个重要的 verbs 可以在不更改行的情况下影响列：mutate() 创建从现有列派生的新列，select() 更改存在的列，rename() 更改列的名称， relocate() 更改列的位置。

4.3.1 mutate()

mutate() 的工作是添加根据现有列计算的新列。 在转换（transform）章节中，您将学习大量可用于操作不同类型变量的函数。 现在，我们将坚持使用基本代数，它允许我们计算 gain、延迟航班在空中补足的时间以及以英里/小时为单位的 speed：

flights |> 
  mutate(
    gain = dep_delay - arr_delay,
    speed = distance / air_time * 60
  )
#> # A tibble: 336,776 × 21
#>    year month   day dep_time sched_dep_time dep_delay arr_time sched_arr_time
#>   <int> <int> <int>    <int>          <int>     <dbl>    <int>          <int>
#> 1  2013     1     1      517            515         2      830            819
#> 2  2013     1     1      533            529         4      850            830
#> 3  2013     1     1      542            540         2      923            850
#> 4  2013     1     1      544            545        -1     1004           1022
#> 5  2013     1     1      554            600        -6      812            837
#> 6  2013     1     1      554            558        -4      740            728
#> # ℹ 336,770 more rows
#> # ℹ 13 more variables: arr_delay <dbl>, carrier <chr>, flight <int>, …

默认情况下，mutate() 会在数据集的右侧添加新列，这使得很难看出这里发生了什么。 我们可以使用 .before 参数将变量添加到左侧 2：

flights |> 
  mutate(
    gain = dep_delay - arr_delay,
    speed = distance / air_time * 60,
    .before = 1
  )
#> # A tibble: 336,776 × 21
#>    gain speed  year month   day dep_time sched_dep_time dep_delay arr_time
#>   <dbl> <dbl> <int> <int> <int>    <int>          <int>     <dbl>    <int>
#> 1    -9  370.  2013     1     1      517            515         2      830
#> 2   -16  374.  2013     1     1      533            529         4      850
#> 3   -31  408.  2013     1     1      542            540         2      923
#> 4    17  517.  2013     1     1      544            545        -1     1004
#> 5    19  394.  2013     1     1      554            600        -6      812
#> 6   -16  288.  2013     1     1      554            558        -4      740
#> # ℹ 336,770 more rows
#> # ℹ 12 more variables: sched_arr_time <int>, arr_delay <dbl>, …
…
starts_with("abc"): 匹配以 “abc” 开头的名称。

ends_with("xyz"): 匹配以 “xyz” 结尾的名称。

contains("ijk"): 匹配包含 “ijk” 的名称。

num_range("x", 1:3): 匹配x1、x2 和 x3。

有关详细信息，请参阅 ?select。 一但你了解正则表达式（the topic of Chapter 16），您还可以使用 matches() 来选择与模式匹配的变量。

您可以在使用 = 在 select() 时重命名变量。 新名称出现在 = 的左侧，旧变量出现在右侧：

flights |> 
  select(tail_num = tailnum)
#> # A tibble: 336,776 × 1
#>   tail_num
#>   <chr>   
#> 1 N14228  
#> 2 N24211  
#> 3 N619AA  
#> 4 N804JB  
#> 5 N668DN  
#> 6 N39463  
#> # ℹ 336,770 more rows

4.3.3 rename()

如果你想保留所有现有变量并且只想重命名一些变量，你可以使用 rename() 而不是 select()：

flights |> 
  rename(tail_num = tailnum)
#> # A tibble: 336,776 × 19
#>    year month   day dep_time sched_dep_time dep_delay arr_time sched_arr_time
#>   <int> <int> <int>    <int>          <int>     <dbl>    <int>          <int>
#> 1  2013     1     1      517            515         2      830            819
#> 2  2013     1     1      533            529         4      850            830
#> 3  2013     1     1      542            540         2      923            850
#> 4  2013     1     1      544            545        -1     1004           1022
#> 5  2013     1     1      554            600        -6      812            837
#> 6  2013     1     1      554            558        -4      740            728
#> # ℹ 336,770 more rows
#> # ℹ 11 more variables: arr_delay <dbl>, carrier <chr>, flight <int>, …

如果你有一堆命名不一致的列，并且手动修复它们会很痛苦，请查看 janitor::clean_names()，它提供了一些有用的自动清理。

4.3.4 relocate()

使用 relocate() 移动变量。 您可能希望将相关变量收集在一起或将重要变量移到前面。 默认情况下，relocate() 将变量移动到前面：

flights |> 
  relocate(time_hour, air_time)
#> # A tibble: 336,776 × 19
#>   time_hour           air_time  year month   day dep_time sched_dep_time
#>   <dttm>                 <dbl> <int> <int> <int>    <int>          <int>
#> 1 2013-01-01 05:00:00      227  2013     1     1      517            515
#> 2 2013-01-01 05:00:00      227  2013     1     1      533            529
#> 3 2013-01-01 05:00:00      160  2013     1     1      542            540
#> 4 2013-01-01 05:00:00      183  2013     1     1      544            545
#> 5 2013-01-01 06:00:00      116  2013     1     1      554            600
#> 6 2013-01-01 05:00:00      150  2013     1     1      554            558
#> # ℹ 336,770 more rows
#> # ℹ 12 more variables: dep_delay <dbl>, arr_time <int>, …
…
4.4 The pipe

我们已经在前面向您展示了管道（pipe）的简单示例，但当您开始组合多个 verbs 时，它的真正威力就会显现出来。 例如，假设您想找到飞往休斯顿 IAH 机场的快速航班：您需要结合使用 filter()、mutate()、select() 和 arrange()：

flights |> 
  filter(dest == "IAH") |> 
  mutate(speed = distance / air_time * 60) |> 
  select(year:day, dep_time, carrier, flight, speed) |> 
  arrange(desc(speed))
#> # A tibble: 7,198 × 7
#>    year month   day dep_time carrier flight speed
#>   <int> <int> <int>    <int> <chr>    <int> <dbl>
#> 1  2013     7     9      707 UA         226  522.
#> 2  2013     8    27     1850 UA        1128  521.
#> 3  2013     8    28      902 UA        1711  519.
#> 4  2013     8    28     2122 UA        1022  519.
#> 5  2013     6    11     1628 UA        1178  515.
#> 6  2013     8    27     1017 UA         333  515.
#> # ℹ 7,192 more rows
…
对于简单的情况，|> 和 %>% 的行为相同。 那么为什么我们推荐 base pipe（|>）呢？ 首先，因为它是 base R 的一部分，所以它始终可供您使用，即使您不使用 tidyverse。 其次，|> 比 %>% 简单得多：从 2014 年发明 %>% 到 2021 年将 |> 包含在 R 4.1.0 之间，我们对管道有了更好地了解。 这允许基本实现放弃不常用和不太重要的功能。

4.5 Groups

到目前为止，您已经了解了处理行和列的函数。 当您添加与组（groups）一起工作的能力时，dplyr 变得更加强大。 在本节中，我们将重点关注最重要的函数：group_by()、summarize() 和 slice 函数系列。

4.5.1 group_by()

使用 group_by() 将您的数据集分成对您的分析有意义的组：

flights |> 
  group_by(month)
#> # A tibble: 336,776 × 19
#> # Groups:   month [12]
#>    year month   day dep_time sched_dep_time dep_delay arr_time sched_arr_time
#>   <int> <int> <int>    <int>          <int>     <dbl>    <int>          <int>
#> 1  2013     1     1      517            515         2      830            819
#> 2  2013     1     1      533            529         4      850            830
#> 3  2013     1     1      542            540         2      923            850
#> 4  2013     1     1      544            545        -1     1004           1022
#> 5  2013     1     1      554            600        -6      812            837
#> 6  2013     1     1      554            558        -4      740            728
#> # ℹ 336,770 more rows
#> # ℹ 11 more variables: arr_delay <dbl>, carrier <chr>, flight <int>, …

group_by() 不会更改数据，但是，如果您仔细查看输出，您会注意到输出表明它是按 month 分组的（Groups: month [12]）。 这意味着后续操作现在将按 month 进行。 group_by() 将这个分组特征（称为类）添加到数据框，这改变了应用于数据的后续 verbs 的行为。

4.5.2 summarize()

最重要的分组操作是 summary，如果用于计算单个汇总统计数据，则会将数据框减少为每个组只有一行。 在 dplyr 中，此操作由 summarize()3 执行，如下例所示，它按月计算平均出发延迟：

flights |> 
  group_by(month) |> 
  summarize(
    avg_delay = mean(dep_delay)
  )
#> # A tibble: 12 × 2
#>   month avg_delay
#>   <int>     <dbl>
#> 1     1        NA
#> 2     2        NA
#> 3     3        NA
#> 4     4        NA
#> 5     5        NA
#> 6     6        NA
#> # ℹ 6 more rows

呃！ 出了点问题，我们所有的结果都是 NA（发音为”N-A”），R 的缺失值符号。 发生这种情况是因为一些观察到的航班在延误列中缺少数据，因此当我们计算包括这些值的平均值时，我们得到了 NA 结果。 我们将在 Chapter 19 中回来详细讨论缺失值，但现在我们将告诉 mean() 函数通过将参数 na.rm 设置为 TRUE 来忽略所有缺失值：

flights |> 
  group_by(month) |> 
  summarize(
    delay = mean(dep_delay, na.rm = TRUE)
  )
#> # A tibble: 12 × 2
#>   month delay
#>   <int> <dbl>
#> 1     1  10.0
#> 2     2  10.8
#> 3     3  13.2
#> 4     4  13.9
#> 5     5  13.0
#> 6     6  20.8
#> # ℹ 6 more rows

您可以在一次调用 summarize() 中创建任意数量的 summaries。 您将在接下来的章节中学习各种有用的 summaries，但一个非常有用的 summary 是 n()，它返回每组中的行数：

flights |> 
  group_by(month) |> 
  summarize(
    delay = mean(dep_delay, na.rm = TRUE), 
    n = n()
  )
#> # A tibble: 12 × 3
#>   month delay     n
#>   <int> <dbl> <int>
#> 1     1  10.0 27004
#> 2     2  10.8 24951
#> 3     3  13.2 28834
#> 4     4  13.9 28330
#> 5     5  13.0 28796
#> 6     6  20.8 28243
#> # ℹ 6 more rows
…
df |> slice_tail(n = 1) 从每组中取出最后一行。

df |> slice_min(x, n = 1) 获取列 x 中具有最小值的行。

df |> slice_max(x, n = 1) 获取列 x 中具有最大值的行。

df |> slice_sample(n = 1) 取一个随机行。

您可以改变 n 以选择多行，或者不使用 n =，您可以使用 prop = 0.1 来选择（例如）每组中 10% 的行。 例如，以下代码查找到达每个目的地时最晚延误的航班：

flights |> 
  group_by(dest) |> 
  slice_max(arr_delay, n = 1) |>
  relocate(dest)
#> # A tibble: 108 × 19
#> # Groups:   dest [105]
#>   dest   year month   day dep_time sched_dep_time dep_delay arr_time
#>   <chr> <int> <int> <int>    <int>          <int>     <dbl>    <int>
#> 1 ABQ    2013     7    22     2145           2007        98      132
#> 2 ACK    2013     7    23     1139            800       219     1250
#> 3 ALB    2013     1    25      123           2000       323      229
#> 4 ANC    2013     8    17     1740           1625        75     2042
#> 5 ATL    2013     7    22     2257            759       898      121
#> 6 AUS    2013     7    10     2056           1505       351     2347
#> # ℹ 102 more rows
#> # ℹ 11 more variables: sched_arr_time <int>, arr_delay <dbl>, …
…
