R for Data Science (2e) - 17 Factors
…
df <- read_csv(csv, col_types = cols(month = col_factor(month_levels)))
df$month
#> [1] Jan Feb Mar
#> Levels: Jan Feb Mar Apr May Jun Jul Aug Sep Oct Nov Dec

17.3 General Social Survey

For the rest of this chapter, we’re going to use forcats::gss_cat. It’s a sample of data from the General Social Survey, a long-running US survey conducted by the independent research organization NORC at the University of Chicago. The survey has thousands of questions, so in gss_cat Hadley selected a handful that will illustrate some common challenges you’ll encounter when working with factors.

gss_cat
#> # A tibble: 21,483 × 9
#>    year marital         age race  rincome        partyid           
#>   <int> <fct>         <int> <fct> <fct>          <fct>             
#> 1  2000 Never married    26 White $8000 to 9999  Ind,near rep      
#> 2  2000 Divorced         48 White $8000 to 9999  Not str republican
#> 3  2000 Widowed          67 White Not applicable Independent       
#> 4  2000 Never married    39 White Not applicable Ind,near rep      
#> 5  2000 Divorced         25 White Not applicable Not str democrat  
#> 6  2000 Married          25 White $20000 - 24999 Strong democrat   
#> # ℹ 21,477 more rows
#> # ℹ 3 more variables: relig <fct>, denom <fct>, tvhours <int>
…
17.4.1 Exercises

There are some suspiciously high numbers in tvhours. Is the mean a good summary?

For each factor in gss_cat identify whether the order of the levels is arbitrary or principled.

Why did moving “Not applicable” to the front of the levels move it to the bottom of the plot?

17.5 Modifying factor levels

More powerful than changing the orders of the levels is changing their values. This allows you to clarify labels for publication, and collapse levels for high-level displays. The most general and powerful tool is fct_recode(). It allows you to recode, or change, the value of each level. For example, take the partyid variable from the gss_cat data frame:

gss_cat |> count(partyid)
#> # A tibble: 10 × 2
#>   partyid                n
#>   <fct>              <int>
#> 1 No answer            154
#> 2 Don't know             1
#> 3 Other party          393
#> 4 Strong republican   2314
#> 5 Not str republican  3032
#> 6 Ind,near rep        1791
#> # ℹ 4 more rows
The levels are terse and inconsistent. Let’s tweak them to be longer and use a parallel construction. Like most rename and recoding functions in the tidyverse, the new values go on the left and the old values go on the right:

gss_cat |>
  mutate(
    partyid = fct_recode(partyid,
      "Republican, strong"    = "Strong republican",
      "Republican, weak"      = "Not str republican",
      "Independent, near rep" = "Ind,near rep",
      "Independent, near dem" = "Ind,near dem",
      "Democrat, weak"        = "Not str democrat",
      "Democrat, strong"      = "Strong democrat"
    )
  ) |>
  count(partyid)
#> # A tibble: 10 × 2
#>   partyid                   n
#>   <fct>                 <int>
#> 1 No answer               154
#> 2 Don't know                1
#> 3 Other party             393
#> 4 Republican, strong     2314
#> 5 Republican, weak       3032
#> 6 Independent, near rep  1791
#> # ℹ 4 more rows
…
gss_cat |>
  mutate(relig = fct_lump_lowfreq(relig)) |>
  count(relig)
#> # A tibble: 2 × 2
#>   relig          n
#>   <fct>      <int>
#> 1 Protestant 10846
#> 2 Other      10637

In this case it’s not very helpful: it is true that the majority of Americans in this survey are Protestant, but we’d probably like to see some more details! Instead, we can use the fct_lump_n() to specify that we want exactly 10 groups:

gss_cat |>
  mutate(relig = fct_lump_n(relig, n = 10)) |>
  count(relig, sort = TRUE)
#> # A tibble: 10 × 2
#>   relig          n
#>   <fct>      <int>
#> 1 Protestant 10846
#> 2 Catholic    5124
#> 3 None        3523
#> 4 Christian    689
#> 5 Other        458
#> 6 Jewish       388
#> # ℹ 4 more rows
…
