R for Data Science (2e) - 16 Regular expressions
…
Now that you’ve got the basics of regular expressions under your belt, let’s use them with some stringr and tidyr functions. In the following section, you’ll learn how to detect the presence or absence of a match, how to count the number of matches, how to replace a match with fixed text, and how to extract text using a pattern.

16.3.1 Detect matches

str_detect() returns a logical vector that is TRUE if the pattern matches an element of the character vector and FALSE otherwise:

str_detect(c("a", "b", "c"), "[aeiou]")
#> [1]  TRUE FALSE FALSE

Since str_detect() returns a logical vector of the same length as the initial vector, it pairs well with filter(). For example, this code finds all the most popular names containing a lower-case “x”:

babynames |> 
  filter(str_detect(name, "x")) |> 
  count(name, wt = n, sort = TRUE)
#> # A tibble: 974 × 2
#>   name           n
#>   <chr>      <int>
#> 1 Alexander 665492
#> 2 Alexis    399551
#> 3 Alex      278705
#> 4 Alexandra 232223
#> 5 Max       148787
#> 6 Alexa     123032
#> # ℹ 968 more rows
…
str_count("abababa", "aba")
#> [1] 2
str_view("abababa", "aba")
#> [1] │ <aba>b<aba>

It’s natural to use str_count() with mutate(). The following example uses str_count() with character classes to count the number of vowels and consonants in each name.

babynames |> 
  count(name) |> 
  mutate(
    vowels = str_count(name, "[aeiou]"),
    consonants = str_count(name, "[^aeiou]")
  )
#> # A tibble: 97,310 × 4
#>   name          n vowels consonants
#>   <chr>     <int>  <int>      <int>
#> 1 Aaban        10      2          3
#> 2 Aabha         5      2          3
#> 3 Aabid         2      2          3
#> 4 Aabir         1      2          3
#> 5 Aabriella     5      4          5
#> 6 Aada          1      2          2
#> # ℹ 97,304 more rows
…
Use str_to_lower() to convert the names to lower case: str_count(str_to_lower(name), "[aeiou]").

This variety of approaches is pretty typical when working with strings — there are often multiple ways to reach your goal, either by making your pattern more complicated or by doing some preprocessing on your string. If you get stuck trying one approach, it can often be useful to switch gears and tackle the problem from a different perspective.

In this case, since we’re applying two functions to the name, I think it’s easier to transform it first:

babynames |> 
  count(name) |> 
  mutate(
    name = str_to_lower(name),
    vowels = str_count(name, "[aeiou]"),
    consonants = str_count(name, "[^aeiou]")
  )
#> # A tibble: 97,310 × 4
#>   name          n vowels consonants
#>   <chr>     <int>  <int>      <int>
#> 1 aaban        10      3          2
#> 2 aabha         5      3          2
#> 3 aabid         2      3          2
#> 4 aabir         1      3          2
#> 5 aabriella     5      5          4
#> 6 aada          1      3          1
#> # ℹ 97,304 more rows
…
To extract this data using separate_wider_regex() we just need to construct a sequence of regular expressions that match each piece. If we want the contents of that piece to appear in the output, we give it a name:

df |> 
  separate_wider_regex(
    str,
    patterns = c(
      "<", 
      name = "[A-Za-z]+", 
      ">-", 
      gender = ".", "_", 
      age = "[0-9]+"
    )
  )
#> # A tibble: 7 × 3
#>   name    gender age  
#>   <chr>   <chr>  <chr>
#> 1 Sheryl  F      34   
#> 2 Kisha   F      45   
#> 3 Brandon N      33   
#> 4 Sharon  F      38   
#> 5 Penny   F      58   
#> 6 Justin  M      41   
#> # ℹ 1 more row
…
You could convert to a tibble and name the columns:

sentences |> 
  str_match("the (\\w+) (\\w+)") |> 
  as_tibble(.name_repair = "minimal") |> 
  set_names("match", "word1", "word2")
#> # A tibble: 720 × 3
#>   match             word1  word2 
#>   <chr>             <chr>  <chr> 
#> 1 the smooth planks smooth planks
#> 2 the sheet to      sheet  to    
#> 3 the depth of      depth  of    
#> 4 <NA>              <NA>   <NA>  
#> 5 <NA>              <NA>   <NA>  
#> 6 <NA>              <NA>   <NA>  
#> # ℹ 714 more rows
…
