R for Data Science (2e) - 25 Web scraping
…
    html_element("h2") |> 
    html_text2(),
  released = section |> 
    html_element("p") |> 
    html_text2() |> 
    str_remove("Released: ") |> 
    parse_date(),
  director = section |> 
    html_element(".director") |> 
    html_text2(),
  intro = section |> 
    html_element(".crawl") |> 
    html_text2()
)
#> # A tibble: 7 × 4
#>   title                   released   director         intro                  
#>   <chr>                   <date>     <chr>            <chr>                  
#> 1 The Phantom Menace      1999-05-19 George Lucas     "Turmoil has engulfed …
#> 2 Attack of the Clones    2002-05-16 George Lucas     "There is unrest in th…
#> 3 Revenge of the Sith     2005-05-19 George Lucas     "War! The Republic is …
#> 4 A New Hope              1977-05-25 George Lucas     "It is a period of civ…
#> 5 The Empire Strikes Back 1980-05-17 Irvin Kershner   "It is a dark time for…
#> 6 Return of the Jedi      1983-05-25 Richard Marquand "Luke Skywalker has re…
#> # ℹ 1 more row
…
